/##/PARAM/01/AA/2018/3/O/N/N
/##/
/01/18050813
/02/D
/03/118811
/04/BC_18DIS-BC001
/05/01
/--/
/51/1
/54/011211
/57/AF 
/66/953,21
/69/EXT
/##/
/01/18050814
/02/D
/03/118919
/04/BC_BCsanslot
/05/01
/--/
/51/2
/54/011211
/57/AF 
/66/0,00
/69/EXT
/##/
/01/18050815
/02/D
/03/118834
/04/BC_BCSeul
/05/01
/--/
/51/3
/54/011211
/57/AF 
/66/0,00
/69/EXT
/##/
